0:0:0:0:0:0:0:1 - - [26/Feb/2015:12:40:22 +0100] "GET / HTTP/1.1" 200 11250
0:0:0:0:0:0:0:1 - - [26/Feb/2015:12:40:22 +0100] "GET /tomcat.css HTTP/1.1" 200 5576
0:0:0:0:0:0:0:1 - - [26/Feb/2015:12:40:22 +0100] "GET /tomcat.png HTTP/1.1" 200 5103
0:0:0:0:0:0:0:1 - - [26/Feb/2015:12:40:22 +0100] "GET /asf-logo.png HTTP/1.1" 200 17811
0:0:0:0:0:0:0:1 - - [26/Feb/2015:12:40:22 +0100] "GET /bg-nav.png HTTP/1.1" 200 1401
0:0:0:0:0:0:0:1 - - [26/Feb/2015:12:40:22 +0100] "GET /bg-middle.png HTTP/1.1" 200 1918
0:0:0:0:0:0:0:1 - - [26/Feb/2015:12:40:22 +0100] "GET /bg-button.png HTTP/1.1" 200 713
0:0:0:0:0:0:0:1 - - [26/Feb/2015:12:40:22 +0100] "GET /bg-upper.png HTTP/1.1" 200 3103
0:0:0:0:0:0:0:1 - - [26/Feb/2015:12:40:22 +0100] "GET /favicon.ico HTTP/1.1" 200 21630
0:0:0:0:0:0:0:1 - - [26/Feb/2015:13:09:41 +0100] "GET /drop HTTP/1.1" 404 1002
